barman/problems/pfile01-001.pddl.seq-opt-lmcut.log , Plan cost: 90
barman/problems/pfile01-002.pddl.seq-opt-lmcut.log , Plan cost: 90
barman/problems/pfile01-003.pddl.seq-opt-lmcut.log , Plan cost: 90
barman/problems/pfile01-004.pddl.seq-opt-lmcut.log , Plan cost: 90
barman/problems/pfile02-005.pddl.seq-opt-lmcut.log , f = 93 [13645719 evaluated, 9352924 expanded, 355512 reopened, t=3565.33s]
barman/problems/pfile02-006.pddl.seq-opt-lmcut.log , f = 92 [13209527 evaluated, 9005293 expanded, 390282 reopened, t=3373.05s]
barman/problems/pfile02-007.pddl.seq-opt-lmcut.log , f = 92 [12633716 evaluated, 8561997 expanded, 315557 reopened, t=3370.45s]
barman/problems/pfile02-008.pddl.seq-opt-lmcut.log , f = 92 [12932686 evaluated, 8678946 expanded, 341255 reopened, t=3361.74s]
barman/problems/pfile03-009.pddl.seq-opt-lmcut.log , f = 78 [9209758 evaluated, 4670760 expanded, 242542 reopened, t=3301.94s]
barman/problems/pfile03-010.pddl.seq-opt-lmcut.log , f = 77 [8092012 evaluated, 4258515 expanded, 279493 reopened, t=3157.49s]
barman/problems/pfile03-011.pddl.seq-opt-lmcut.log , f = 78 [8848553 evaluated, 4619000 expanded, 244844 reopened, t=3247.86s]
barman/problems/pfile03-012.pddl.seq-opt-lmcut.log , f = 77 [8442856 evaluated, 4396594 expanded, 301605 reopened, t=3356.49s]
barman/problems/pfile04-013.pddl.seq-opt-lmcut.log , f = 67 [5683406 evaluated, 2342956 expanded, 123568 reopened, t=3486.46s]
barman/problems/pfile04-014.pddl.seq-opt-lmcut.log , f = 67 [4901217 evaluated, 2025836 expanded, 71317 reopened, t=2986.65s]
barman/problems/pfile04-015.pddl.seq-opt-lmcut.log , f = 66 [5873173 evaluated, 2271344 expanded, 128824 reopened, t=3354.45s]
barman/problems/pfile04-016.pddl.seq-opt-lmcut.log , f = 67 [5655139 evaluated, 2579022 expanded, 168845 reopened, t=3400.32s]
barman/problems/pfile05-017.pddl.seq-opt-lmcut.log , f = 65 [3830023 evaluated, 1620093 expanded, 85994 reopened, t=2744.68s]
barman/problems/pfile05-018.pddl.seq-opt-lmcut.log , f = 66 [3721121 evaluated, 1645982 expanded, 96561 reopened, t=2806.95s]
barman/problems/pfile05-019.pddl.seq-opt-lmcut.log , f = 66 [3551674 evaluated, 1641245 expanded, 113313 reopened, t=2644.57s]
barman/problems/pfile05-020.pddl.seq-opt-lmcut.log , f = 64 [3935408 evaluated, 1593473 expanded, 102141 reopened, t=2732.76s]
elevators/problems/p01.pddl.seq-opt-lmcut.log , Plan cost: 56
elevators/problems/p02.pddl.seq-opt-lmcut.log , Plan cost: 48
elevators/problems/p03.pddl.seq-opt-lmcut.log , Plan cost: 54
elevators/problems/p04.pddl.seq-opt-lmcut.log , Plan cost: 55
elevators/problems/p05.pddl.seq-opt-lmcut.log , Plan cost: 59
elevators/problems/p06.pddl.seq-opt-lmcut.log , Plan cost: 40
elevators/problems/p07.pddl.seq-opt-lmcut.log , Plan cost: 48
elevators/problems/p08.pddl.seq-opt-lmcut.log , Plan cost: 55
elevators/problems/p09.pddl.seq-opt-lmcut.log , Plan cost: 54
elevators/problems/p10.pddl.seq-opt-lmcut.log , Plan cost: 63
elevators/problems/p11.pddl.seq-opt-lmcut.log , f = 64 [6975666 evaluated, 451075 expanded, 214 reopened, t=3244.35s]
elevators/problems/p12.pddl.seq-opt-lmcut.log , Plan cost: 53
elevators/problems/p13.pddl.seq-opt-lmcut.log , Plan cost: 62
elevators/problems/p14.pddl.seq-opt-lmcut.log , Plan cost: 53
elevators/problems/p15.pddl.seq-opt-lmcut.log , f = 71 [14609317 evaluated, 2218979 expanded, 24873 reopened, t=3275.81s]
elevators/problems/p16.pddl.seq-opt-lmcut.log , Plan cost: 66
elevators/problems/p17.pddl.seq-opt-lmcut.log , Plan cost: 78
elevators/problems/p18.pddl.seq-opt-lmcut.log , Plan cost: 61
elevators/problems/p19.pddl.seq-opt-lmcut.log , Plan cost: 69
elevators/problems/p20.pddl.seq-opt-lmcut.log , Plan cost: 56
nomystery/problems/p01.pddl.seq-opt-lmcut.log , Plan cost: 11
nomystery/problems/p02.pddl.seq-opt-lmcut.log , Plan cost: 14
nomystery/problems/p03.pddl.seq-opt-lmcut.log , Plan cost: 15
nomystery/problems/p04.pddl.seq-opt-lmcut.log , Plan cost: 19
nomystery/problems/p05.pddl.seq-opt-lmcut.log , Plan cost: 23
nomystery/problems/p06.pddl.seq-opt-lmcut.log , Plan cost: 26
nomystery/problems/p07.pddl.seq-opt-lmcut.log , Plan cost: 30
nomystery/problems/p08.pddl.seq-opt-lmcut.log , f = 33 [305017 evaluated, 55087 expanded, 676 reopened, t=859.63s]
nomystery/problems/p09.pddl.seq-opt-lmcut.log , f = 35 [513456 evaluated, 98334 expanded, 698 reopened, t=2065.03s]
nomystery/problems/p10.pddl.seq-opt-lmcut.log , Plan cost: 38
nomystery/problems/p11.pddl.seq-opt-lmcut.log , Plan cost: 12
nomystery/problems/p12.pddl.seq-opt-lmcut.log , Plan cost: 14
nomystery/problems/p13.pddl.seq-opt-lmcut.log , Plan cost: 15
nomystery/problems/p14.pddl.seq-opt-lmcut.log , Plan cost: 19
nomystery/problems/p15.pddl.seq-opt-lmcut.log , Plan cost: 23
nomystery/problems/p16.pddl.seq-opt-lmcut.log , Plan cost: 26
nomystery/problems/p17.pddl.seq-opt-lmcut.log , Plan cost: 30
nomystery/problems/p18.pddl.seq-opt-lmcut.log , Plan cost: 34
nomystery/problems/p19.pddl.seq-opt-lmcut.log , f = 35 [512947 evaluated, 98188 expanded, 698 reopened, t=1201.49s]
nomystery/problems/p20.pddl.seq-opt-lmcut.log , Plan cost: 38
openstacks/problems/p01.pddl.seq-opt-lmcut.log , Plan cost: 2
openstacks/problems/p02.pddl.seq-opt-lmcut.log , Plan cost: 5
openstacks/problems/p03.pddl.seq-opt-lmcut.log , Plan cost: 5
openstacks/problems/p04.pddl.seq-opt-lmcut.log , Plan cost: 3
openstacks/problems/p05.pddl.seq-opt-lmcut.log , Plan cost: 3
openstacks/problems/p06.pddl.seq-opt-lmcut.log , Plan cost: 4
openstacks/problems/p07.pddl.seq-opt-lmcut.log , Plan cost: 3
openstacks/problems/p08.pddl.seq-opt-lmcut.log , Plan cost: 4
openstacks/problems/p09.pddl.seq-opt-lmcut.log , Plan cost: 4
openstacks/problems/p10.pddl.seq-opt-lmcut.log , Plan cost: 4
openstacks/problems/p11.pddl.seq-opt-lmcut.log , Plan cost: 4
openstacks/problems/p12.pddl.seq-opt-lmcut.log , Plan cost: 4
openstacks/problems/p13.pddl.seq-opt-lmcut.log , Plan cost: 4
openstacks/problems/p14.pddl.seq-opt-lmcut.log , Plan cost: 3
openstacks/problems/p15.pddl.seq-opt-lmcut.log , Plan cost: 4
openstacks/problems/p16.pddl.seq-opt-lmcut.log , Plan cost: 3
openstacks/problems/p17.pddl.seq-opt-lmcut.log , f = 4 [7291457 evaluated, 3330113 expanded, t=502.6s]
openstacks/problems/p18.pddl.seq-opt-lmcut.log , f = 4 [3127329 evaluated, 1203169 expanded, t=289.11s]
openstacks/problems/p19.pddl.seq-opt-lmcut.log , f = 4 [15138305 evaluated, 6708225 expanded, t=1390.81s]
openstacks/problems/p20.pddl.seq-opt-lmcut.log , f = 4 [1718193 evaluated, 585761 expanded, t=196.82s]
parcprinter/problems/p01.pddl.seq-opt-lmcut.log , Plan cost: 375821
parcprinter/problems/p02.pddl.seq-opt-lmcut.log , Plan cost: 438047
parcprinter/problems/p03.pddl.seq-opt-lmcut.log , Plan cost: 510256
parcprinter/problems/p04.pddl.seq-opt-lmcut.log , Plan cost: 876094
parcprinter/problems/p05.pddl.seq-opt-lmcut.log , Plan cost: 519232
parcprinter/problems/p06.pddl.seq-opt-lmcut.log , Plan cost: 1514199
parcprinter/problems/p07.pddl.seq-opt-lmcut.log , Plan cost: 1145132
parcprinter/problems/p08.pddl.seq-opt-lmcut.log , Plan cost: 751642
parcprinter/problems/p09.pddl.seq-opt-lmcut.log , Plan cost: 693064
parcprinter/problems/p10.pddl.seq-opt-lmcut.log , Plan cost: 1215839
parcprinter/problems/p11.pddl.seq-opt-lmcut.log , Plan cost: 1216462
parcprinter/problems/p12.pddl.seq-opt-lmcut.log , Plan cost: 1020512
parcprinter/problems/p13.pddl.seq-opt-lmcut.log , Plan cost: 1383121
parcprinter/problems/p14.pddl.seq-opt-lmcut.log , Plan cost: 1852217
parcprinter/problems/p15.pddl.seq-opt-lmcut.log , Plan cost: 2121255
parcprinter/problems/p16.pddl.seq-opt-lmcut.log , Plan cost: 2490322
parcprinter/problems/p17.pddl.seq-opt-lmcut.log , f = 1653518 [17046792 evaluated, 9947866 expanded, t=3586.84s]
parcprinter/problems/p18.pddl.seq-opt-lmcut.log , f = 1497699 [11767114 evaluated, 3710521 expanded, t=3588.11s]
parcprinter/problems/p19.pddl.seq-opt-lmcut.log , f = 1496540 [6555563 evaluated, 1306001 expanded, t=3003.09s]
parcprinter/problems/p20.pddl.seq-opt-lmcut.log , Plan cost: 1270874
parking/problems/pfile03-011.pddl.seq-opt-lmcut.log , Plan cost: 14
parking/problems/pfile03-012.pddl.seq-opt-lmcut.log , f = 19 [593139 evaluated, 118456 expanded, 524 reopened, t=964.37s]
parking/problems/pfile04-013.pddl.seq-opt-lmcut.log , Plan cost: 20
parking/problems/pfile04-014.pddl.seq-opt-lmcut.log , f = 20 [753962 evaluated, 108285 expanded, 758 reopened, t=2472.09s]
parking/problems/pfile04-015.pddl.seq-opt-lmcut.log , Plan cost: 19
parking/problems/pfile04-016.pddl.seq-opt-lmcut.log , f = 19 [745157 evaluated, 101569 expanded, 2845 reopened, t=2294.93s]
parking/problems/pfile05-017.pddl.seq-opt-lmcut.log , f = 20 [267067 evaluated, 29017 expanded, 6 reopened, t=1580.85s]
parking/problems/pfile05-018.pddl.seq-opt-lmcut.log , f = 19 [91258 evaluated, 9089 expanded, 1 reopened, t=505.28s]
parking/problems/pfile05-019.pddl.seq-opt-lmcut.log , f = 21 [63895 evaluated, 6067 expanded, 20 reopened, t=440.81s]
parking/problems/pfile05-020.pddl.seq-opt-lmcut.log , f = 21 [173410 evaluated, 19935 expanded, 18 reopened, t=1104.5s]
parking/problems/pfile06-021.pddl.seq-opt-lmcut.log , f = 22 [224507 evaluated, 19755 expanded, 474 reopened, t=2314.86s]
parking/problems/pfile06-022.pddl.seq-opt-lmcut.log , f = 23 [143390 evaluated, 12265 expanded, 588 reopened, t=1639.5s]
parking/problems/pfile06-023.pddl.seq-opt-lmcut.log , f = 22 [333893 evaluated, 27807 expanded, 369 reopened, t=3380.76s]
parking/problems/pfile06-024.pddl.seq-opt-lmcut.log , f = 21 [93914 evaluated, 8318 expanded, 18 reopened, t=958.78s]
parking/problems/pfile07-025.pddl.seq-opt-lmcut.log , f = 24 [141199 evaluated, 9973 expanded, 10 reopened, t=2276.52s]
parking/problems/pfile07-026.pddl.seq-opt-lmcut.log , f = 22 [25717 evaluated, 1754 expanded, 10 reopened, t=410.41s]
parking/problems/pfile07-027.pddl.seq-opt-lmcut.log , f = 24 [43503 evaluated, 3268 expanded, t=783.86s]
parking/problems/pfile07-028.pddl.seq-opt-lmcut.log , f = 25 [79808 evaluated, 5191 expanded, 29 reopened, t=1415.7s]
parking/problems/pfile08-029.pddl.seq-opt-lmcut.log , f = 25 [34036 evaluated, 2151 expanded, 1 reopened, t=837.28s]
parking/problems/pfile08-030.pddl.seq-opt-lmcut.log , f = 25 [13274 evaluated, 828 expanded, t=339.82s]
pegsol/problems/p01.pddl.seq-opt-lmcut.log , Plan cost: 3
pegsol/problems/p02.pddl.seq-opt-lmcut.log , Plan cost: 10
pegsol/problems/p03.pddl.seq-opt-lmcut.log , Plan cost: 7
pegsol/problems/p04.pddl.seq-opt-lmcut.log , Plan cost: 8
pegsol/problems/p05.pddl.seq-opt-lmcut.log , Plan cost: 12
pegsol/problems/p06.pddl.seq-opt-lmcut.log , Plan cost: 9
pegsol/problems/p07.pddl.seq-opt-lmcut.log , Plan cost: 7
pegsol/problems/p08.pddl.seq-opt-lmcut.log , Plan cost: 7
pegsol/problems/p09.pddl.seq-opt-lmcut.log , Plan cost: 8
pegsol/problems/p10.pddl.seq-opt-lmcut.log , Plan cost: 8
pegsol/problems/p11.pddl.seq-opt-lmcut.log , Plan cost: 6
pegsol/problems/p12.pddl.seq-opt-lmcut.log , Plan cost: 11
pegsol/problems/p13.pddl.seq-opt-lmcut.log , Plan cost: 8
pegsol/problems/p14.pddl.seq-opt-lmcut.log , Plan cost: 8
pegsol/problems/p15.pddl.seq-opt-lmcut.log , Plan cost: 8
pegsol/problems/p16.pddl.seq-opt-lmcut.log , Plan cost: 9
pegsol/problems/p17.pddl.seq-opt-lmcut.log , Plan cost: 7
pegsol/problems/p18.pddl.seq-opt-lmcut.log , Plan cost: 12
pegsol/problems/p19.pddl.seq-opt-lmcut.log , Plan cost: 11
pegsol/problems/p20.pddl.seq-opt-lmcut.log , f = 15 [47001018 evaluated, 18817738 expanded, 659667 reopened, t=3320.54s]
scanalyzer/problems/p01.pddl.seq-opt-lmcut.log , Plan cost: 13
scanalyzer/problems/p02.pddl.seq-opt-lmcut.log , Plan cost: 22
scanalyzer/problems/p03.pddl.seq-opt-lmcut.log , Plan cost: 26
scanalyzer/problems/p04.pddl.seq-opt-lmcut.log , Plan cost: 24
scanalyzer/problems/p05.pddl.seq-opt-lmcut.log , Plan cost: 30
scanalyzer/problems/p06.pddl.seq-opt-lmcut.log , Plan cost: 30
scanalyzer/problems/p07.pddl.seq-opt-lmcut.log , Plan cost: 54
scanalyzer/problems/p08.pddl.seq-opt-lmcut.log , Plan cost: 36
scanalyzer/problems/p09.pddl.seq-opt-lmcut.log , Plan cost: 42
scanalyzer/problems/p10.pddl.seq-opt-lmcut.log , Plan cost: 48
scanalyzer/problems/p11.pddl.seq-opt-lmcut.log , Plan cost: 26
scanalyzer/problems/p12.pddl.seq-opt-lmcut.log , f = 35 [9296798 evaluated, 4350154 expanded, 2070 reopened, t=3300.04s]
scanalyzer/problems/p13.pddl.seq-opt-lmcut.log , Plan cost: 34
scanalyzer/problems/p14.pddl.seq-opt-lmcut.log , Plan cost: 30
scanalyzer/problems/p15.pddl.seq-opt-lmcut.log , f = 33 [586970 evaluated, 27388 expanded, t=530.36s]
scanalyzer/problems/p16.pddl.seq-opt-lmcut.log , f = 38 [205735 evaluated, 6112 expanded, t=406.29s]
scanalyzer/problems/p17.pddl.seq-opt-lmcut.log , f = 43 [1 evaluated, 0 expanded, t=0.31s]
scanalyzer/problems/p18.pddl.seq-opt-lmcut.log , f = 49 [1 evaluated, 0 expanded, t=0.53s]
scanalyzer/problems/p19.pddl.seq-opt-lmcut.log , f = 55 [1 evaluated, 0 expanded, t=0.88s]
scanalyzer/problems/p20.pddl.seq-opt-lmcut.log , f = 36 [1 evaluated, 0 expanded, t=11.73s]
sokoban/problems/p01.pddl.seq-opt-lmcut.log , Plan cost: 9
sokoban/problems/p02.pddl.seq-opt-lmcut.log , Plan cost: 37
sokoban/problems/p03.pddl.seq-opt-lmcut.log , Plan cost: 29
sokoban/problems/p04.pddl.seq-opt-lmcut.log , Plan cost: 29
sokoban/problems/p05.pddl.seq-opt-lmcut.log , Plan cost: 50
sokoban/problems/p06.pddl.seq-opt-lmcut.log , Plan cost: 35
sokoban/problems/p07.pddl.seq-opt-lmcut.log , Plan cost: 30
sokoban/problems/p08.pddl.seq-opt-lmcut.log , Plan cost: 19
sokoban/problems/p09.pddl.seq-opt-lmcut.log , Plan cost: 15
sokoban/problems/p10.pddl.seq-opt-lmcut.log , Plan cost: 8
sokoban/problems/p11.pddl.seq-opt-lmcut.log , Plan cost: 20
sokoban/problems/p12.pddl.seq-opt-lmcut.log , Plan cost: 2
sokoban/problems/p13.pddl.seq-opt-lmcut.log , Plan cost: 31
sokoban/problems/p14.pddl.seq-opt-lmcut.log , Plan cost: 32
sokoban/problems/p15.pddl.seq-opt-lmcut.log , Plan cost: 49
sokoban/problems/p16.pddl.seq-opt-lmcut.log , Plan cost: 76
sokoban/problems/p17.pddl.seq-opt-lmcut.log , Plan cost: 47
sokoban/problems/p18.pddl.seq-opt-lmcut.log , Plan cost: 10
sokoban/problems/p19.pddl.seq-opt-lmcut.log , Plan cost: 44
sokoban/problems/p20.pddl.seq-opt-lmcut.log , Plan cost: 31
transport/problems/p01.pddl.seq-opt-lmcut.log , Plan cost: 630
transport/problems/p02.pddl.seq-opt-lmcut.log , Plan cost: 250
transport/problems/p03.pddl.seq-opt-lmcut.log , Plan cost: 594
transport/problems/p04.pddl.seq-opt-lmcut.log , Plan cost: 550
transport/problems/p05.pddl.seq-opt-lmcut.log , Plan cost: 614
transport/problems/p06.pddl.seq-opt-lmcut.log , Plan cost: 318
transport/problems/p07.pddl.seq-opt-lmcut.log , f = 270 [1617427 evaluated, 506437 expanded, 9358 reopened, t=3458.36s]
transport/problems/p08.pddl.seq-opt-lmcut.log , f = 288 [900630 evaluated, 153524 expanded, 5145 reopened, t=3387.23s]
transport/problems/p09.pddl.seq-opt-lmcut.log , f = 234 [1351728 evaluated, 324880 expanded, 4558 reopened, t=3477.19s]
transport/problems/p10.pddl.seq-opt-lmcut.log , f = 289 [726126 evaluated, 128981 expanded, 4270 reopened, t=3574.34s]
transport/problems/p11.pddl.seq-opt-lmcut.log , f = 632 [943281 evaluated, 143544 expanded, 304 reopened, t=3390.02s]
transport/problems/p12.pddl.seq-opt-lmcut.log , f = 621 [607459 evaluated, 66816 expanded, 417 reopened, t=3496.41s]
transport/problems/p13.pddl.seq-opt-lmcut.log , f = 319 [916151 evaluated, 287249 expanded, 14437 reopened, t=3501.43s]
transport/problems/p14.pddl.seq-opt-lmcut.log , f = 254 [531308 evaluated, 83835 expanded, 1103 reopened, t=3333.02s]
transport/problems/p15.pddl.seq-opt-lmcut.log , f = 757 [668241 evaluated, 145338 expanded, 1691 reopened, t=3476.77s]
transport/problems/p16.pddl.seq-opt-lmcut.log , f = 559 [405007 evaluated, 73010 expanded, 721 reopened, t=3468.22s]
transport/problems/p17.pddl.seq-opt-lmcut.log , f = 290 [1134472 evaluated, 299312 expanded, 19884 reopened, t=3570.02s]
transport/problems/p18.pddl.seq-opt-lmcut.log , f = 721 [1426442 evaluated, 570566 expanded, 3032 reopened, t=3561.1s]
transport/problems/p19.pddl.seq-opt-lmcut.log , f = 862 [1378127 evaluated, 519408 expanded, 6576 reopened, t=3574.08s]
transport/problems/p20.pddl.seq-opt-lmcut.log , f = 273 [396949 evaluated, 63128 expanded, 2190 reopened, t=3504.03s]
visitall/problems/problem02-full.pddl.seq-opt-lmcut.log , Plan cost: 3
visitall/problems/problem02-half.pddl.seq-opt-lmcut.log , Plan cost: 1
visitall/problems/problem03-full.pddl.seq-opt-lmcut.log , Plan cost: 8
visitall/problems/problem03-half.pddl.seq-opt-lmcut.log , Plan cost: 6
visitall/problems/problem04-full.pddl.seq-opt-lmcut.log , Plan cost: 15
visitall/problems/problem04-half.pddl.seq-opt-lmcut.log , Plan cost: 11
visitall/problems/problem05-full.pddl.seq-opt-lmcut.log , Plan cost: 24
visitall/problems/problem05-half.pddl.seq-opt-lmcut.log , Plan cost: 18
visitall/problems/problem06-full.pddl.seq-opt-lmcut.log , f = 34 [21652481 evaluated, 10146601 expanded, 46295 reopened, t=1783.91s]
visitall/problems/problem06-half.pddl.seq-opt-lmcut.log , Plan cost: 23
visitall/problems/problem07-full.pddl.seq-opt-lmcut.log , f = 39 [14827358 evaluated, 6572477 expanded, 72840 reopened, t=2146.71s]
visitall/problems/problem07-half.pddl.seq-opt-lmcut.log , Plan cost: 36
visitall/problems/problem08-full.pddl.seq-opt-lmcut.log , f = 45 [9627907 evaluated, 3985298 expanded, 60383 reopened, t=2295.91s]
visitall/problems/problem08-half.pddl.seq-opt-lmcut.log , Plan cost: 43
visitall/problems/problem09-full.pddl.seq-opt-lmcut.log , f = 53 [4301544 evaluated, 2173065 expanded, 93859 reopened, t=1536.75s]
visitall/problems/problem09-half.pddl.seq-opt-lmcut.log , f = 48 [5304014 evaluated, 2568037 expanded, 90667 reopened, t=1660s]
visitall/problems/problem10-full.pddl.seq-opt-lmcut.log , f = 60 [1 evaluated, 0 expanded, t=0s]
visitall/problems/problem10-half.pddl.seq-opt-lmcut.log , f = 55 [5068885 evaluated, 2435870 expanded, 39371 reopened, t=2157.87s]
visitall/problems/problem11-full.pddl.seq-opt-lmcut.log , f = 73 [1 evaluated, 0 expanded, t=0.01s]
visitall/problems/problem11-half.pddl.seq-opt-lmcut.log , f = 64 [3550237 evaluated, 1575781 expanded, 24143 reopened, t=2248.23s]
woodworking/problems/p01.pddl.seq-opt-lmcut.log , Plan cost: 195
woodworking/problems/p02.pddl.seq-opt-lmcut.log , Plan cost: 225
woodworking/problems/p03.pddl.seq-opt-lmcut.log , Plan cost: 215
woodworking/problems/p04.pddl.seq-opt-lmcut.log , Plan cost: 275
woodworking/problems/p05.pddl.seq-opt-lmcut.log , Plan cost: 245
woodworking/problems/p06.pddl.seq-opt-lmcut.log , Plan cost: 280
woodworking/problems/p07.pddl.seq-opt-lmcut.log , Plan cost: 225
woodworking/problems/p08.pddl.seq-opt-lmcut.log , Plan cost: 380
woodworking/problems/p09.pddl.seq-opt-lmcut.log , Plan cost: 270
woodworking/problems/p10.pddl.seq-opt-lmcut.log , Plan cost: 270
woodworking/problems/p11.pddl.seq-opt-lmcut.log , Plan cost: 240
woodworking/problems/p12.pddl.seq-opt-lmcut.log , Plan cost: 315
woodworking/problems/p13.pddl.seq-opt-lmcut.log , f = 430 [1 evaluated, 0 expanded, t=0.02s]
woodworking/problems/p14.pddl.seq-opt-lmcut.log , Plan cost: 350
woodworking/problems/p15.pddl.seq-opt-lmcut.log , f = 280 [1 evaluated, 0 expanded, t=0.03s]
woodworking/problems/p16.pddl.seq-opt-lmcut.log , Plan cost: 400
woodworking/problems/p17.pddl.seq-opt-lmcut.log , f = 545 [7911549 evaluated, 245973 expanded, t=2995.12s]
woodworking/problems/p18.pddl.seq-opt-lmcut.log , f = 445 [1 evaluated, 0 expanded, t=0.03s]
woodworking/problems/p19.pddl.seq-opt-lmcut.log , f = 420 [10692 evaluated, 324 expanded, t=5.4s]
woodworking/problems/p20.pddl.seq-opt-lmcut.log , f = 525 [1 evaluated, 0 expanded, t=0.03s]
