barman/problems/pfile01-001.pddl.opseq.log , 41.0
barman/problems/pfile01-001.pddl.seq-opt-hpp.log , 43
barman/problems/pfile01-001.pddl.seq-opt-symba-2.log , 90
barman/problems/pfile01-002.pddl.opseq.log , 41.0
barman/problems/pfile01-002.pddl.seq-opt-hpp.log , 42
barman/problems/pfile01-002.pddl.seq-opt-symba-2.log , 90
barman/problems/pfile01-003.pddl.opseq.log , 41.0
barman/problems/pfile01-003.pddl.seq-opt-hpp.log , 42
barman/problems/pfile01-003.pddl.seq-opt-symba-2.log , 90
barman/problems/pfile01-004.pddl.opseq.log , 41.0
barman/problems/pfile01-004.pddl.seq-opt-hpp.log , 43
barman/problems/pfile01-004.pddl.seq-opt-symba-2.log , 90
barman/problems/pfile02-005.pddl.opseq.log , 44.0
barman/problems/pfile02-005.pddl.seq-opt-hpp.log , 44
barman/problems/pfile02-005.pddl.seq-opt-symba-2.log , 14
barman/problems/pfile02-006.pddl.opseq.log , 44.0
barman/problems/pfile02-006.pddl.seq-opt-hpp.log , 44
barman/problems/pfile02-006.pddl.seq-opt-symba-2.log , 121
barman/problems/pfile02-007.pddl.opseq.log , 44.0
barman/problems/pfile02-007.pddl.seq-opt-hpp.log , 44
barman/problems/pfile02-007.pddl.seq-opt-symba-2.log , 121
barman/problems/pfile02-008.pddl.opseq.log , 44.0
barman/problems/pfile02-008.pddl.seq-opt-hpp.log , 44
barman/problems/pfile02-008.pddl.seq-opt-symba-2.log , 121
barman/problems/pfile03-009.pddl.opseq.log , 47.0
barman/problems/pfile03-009.pddl.seq-opt-hpp.log , 46
barman/problems/pfile03-009.pddl.seq-opt-symba-2.log , 152
barman/problems/pfile03-010.pddl.opseq.log , 47.0
barman/problems/pfile03-010.pddl.seq-opt-hpp.log , 46
barman/problems/pfile03-010.pddl.seq-opt-symba-2.log , 143
barman/problems/pfile03-011.pddl.opseq.log , 47.0
barman/problems/pfile03-011.pddl.seq-opt-hpp.log , 45
barman/problems/pfile03-011.pddl.seq-opt-symba-2.log , 152
barman/problems/pfile03-012.pddl.opseq.log , 47.0
barman/problems/pfile03-012.pddl.seq-opt-hpp.log , 46
barman/problems/pfile03-012.pddl.seq-opt-symba-2.log , 152
barman/problems/pfile04-013.pddl.opseq.log , 50.0
barman/problems/pfile04-013.pddl.seq-opt-hpp.log , 48
barman/problems/pfile04-013.pddl.seq-opt-symba-2.log , 93
barman/problems/pfile04-014.pddl.opseq.log , 52.0
barman/problems/pfile04-014.pddl.seq-opt-hpp.log , 49
barman/problems/pfile04-014.pddl.seq-opt-symba-2.log , 96
barman/problems/pfile04-015.pddl.opseq.log , 50.0
barman/problems/pfile04-015.pddl.seq-opt-hpp.log , 49
barman/problems/pfile04-015.pddl.seq-opt-symba-2.log , 86
barman/problems/pfile04-016.pddl.opseq.log , 50.0
barman/problems/pfile04-016.pddl.seq-opt-hpp.log , 49
barman/problems/pfile04-016.pddl.seq-opt-symba-2.log , 93
barman/problems/pfile05-017.pddl.opseq.log , 55.0
barman/problems/pfile05-017.pddl.seq-opt-hpp.log , 51
barman/problems/pfile05-017.pddl.seq-opt-symba-2.log , 81
barman/problems/pfile05-018.pddl.opseq.log , 55.0
barman/problems/pfile05-018.pddl.seq-opt-hpp.log , 51
barman/problems/pfile05-018.pddl.seq-opt-symba-2.log , 84
barman/problems/pfile05-019.pddl.opseq.log , 55.0
barman/problems/pfile05-019.pddl.seq-opt-hpp.log , 51
barman/problems/pfile05-019.pddl.seq-opt-symba-2.log , 84
barman/problems/pfile05-020.pddl.opseq.log , 55.0
barman/problems/pfile05-020.pddl.seq-opt-hpp.log , 51
barman/problems/pfile05-020.pddl.seq-opt-symba-2.log , 84
elevators/problems/p01.pddl.opseq.log , 56.0999999978
elevators/problems/p01.pddl.seq-opt-hpp.log , 52
elevators/problems/p01.pddl.seq-opt-symba-2.log , 56
elevators/problems/p02.pddl.opseq.log , 48.0999999978
elevators/problems/p02.pddl.seq-opt-hpp.log , 46
elevators/problems/p02.pddl.seq-opt-symba-2.log , 48
elevators/problems/p03.pddl.opseq.log , 54.0799999982
elevators/problems/p03.pddl.seq-opt-hpp.log , 44
elevators/problems/p03.pddl.seq-opt-symba-2.log , 54
elevators/problems/p04.pddl.opseq.log , 55.0999999978
elevators/problems/p04.pddl.seq-opt-hpp.log , 51
elevators/problems/p04.pddl.seq-opt-symba-2.log , 55
elevators/problems/p05.pddl.opseq.log , 59.0944736821
elevators/problems/p05.pddl.seq-opt-hpp.log , 47
elevators/problems/p05.pddl.seq-opt-symba-2.log , 59
elevators/problems/p06.pddl.opseq.log , 39.6399999969
elevators/problems/p06.pddl.seq-opt-hpp.log , 36
elevators/problems/p06.pddl.seq-opt-symba-2.log , 40
elevators/problems/p07.pddl.opseq.log , 48.1199999973
elevators/problems/p07.pddl.seq-opt-hpp.log , 42
elevators/problems/p07.pddl.seq-opt-symba-2.log , 48
elevators/problems/p08.pddl.opseq.log , 55.1399999969
elevators/problems/p08.pddl.seq-opt-hpp.log , 39
elevators/problems/p08.pddl.seq-opt-symba-2.log , 55
elevators/problems/p09.pddl.opseq.log , 54.0999999978
elevators/problems/p09.pddl.seq-opt-hpp.log , 42
elevators/problems/p09.pddl.seq-opt-symba-2.log , 54
elevators/problems/p10.pddl.opseq.log , 60.802499996
elevators/problems/p10.pddl.seq-opt-hpp.log , 58
elevators/problems/p10.pddl.seq-opt-symba-2.log , 63
elevators/problems/p11.pddl.opseq.log , 77.2199999951
elevators/problems/p11.pddl.seq-opt-hpp.log , 66
elevators/problems/p11.pddl.seq-opt-symba-2.log , 81
elevators/problems/p12.pddl.opseq.log , 53.179999996
elevators/problems/p12.pddl.seq-opt-hpp.log , 51
elevators/problems/p12.pddl.seq-opt-symba-2.log , 53
elevators/problems/p13.pddl.opseq.log , 55.179999996
elevators/problems/p13.pddl.seq-opt-hpp.log , 41
elevators/problems/p13.pddl.seq-opt-symba-2.log , 62
elevators/problems/p14.pddl.opseq.log , 44.179999996
elevators/problems/p14.pddl.seq-opt-hpp.log , 34
elevators/problems/p14.pddl.seq-opt-symba-2.log , 53
elevators/problems/p15.pddl.opseq.log , 69.8145333272
elevators/problems/p15.pddl.seq-opt-hpp.log , 53
elevators/problems/p15.pddl.seq-opt-symba-2.log , 78
elevators/problems/p16.pddl.opseq.log , 63.1399999969
elevators/problems/p16.pddl.seq-opt-hpp.log , 59
elevators/problems/p16.pddl.seq-opt-symba-2.log , 66
elevators/problems/p17.pddl.opseq.log , 75.4601000087
elevators/problems/p17.pddl.seq-opt-hpp.log , 57
elevators/problems/p17.pddl.seq-opt-symba-2.log , 78
elevators/problems/p18.pddl.opseq.log , 61.179999996
elevators/problems/p18.pddl.seq-opt-hpp.log , 48
elevators/problems/p18.pddl.seq-opt-symba-2.log , 61
elevators/problems/p19.pddl.opseq.log , 68.3099999968
elevators/problems/p19.pddl.seq-opt-hpp.log , 55
elevators/problems/p19.pddl.seq-opt-symba-2.log , 69
elevators/problems/p20.pddl.opseq.log , 56.1599999964
elevators/problems/p20.pddl.seq-opt-hpp.log , 50
elevators/problems/p20.pddl.seq-opt-symba-2.log , 56
floortile/problems/opt-p01-001.pddl.opseq.log , 37.0
floortile/problems/opt-p01-001.pddl.seq-opt-hpp.log , 
floortile/problems/opt-p01-001.pddl.seq-opt-symba-2.log , 38
floortile/problems/opt-p01-002.pddl.opseq.log , 33.0
floortile/problems/opt-p01-002.pddl.seq-opt-hpp.log , 
floortile/problems/opt-p01-002.pddl.seq-opt-symba-2.log , 33
floortile/problems/opt-p02-003.pddl.opseq.log , 49.0
floortile/problems/opt-p02-003.pddl.seq-opt-hpp.log , 
floortile/problems/opt-p02-003.pddl.seq-opt-symba-2.log , 62
floortile/problems/opt-p02-004.pddl.opseq.log , 43.0
floortile/problems/opt-p02-004.pddl.seq-opt-hpp.log , 
floortile/problems/opt-p02-004.pddl.seq-opt-symba-2.log , 53
floortile/problems/opt-p03-005.pddl.opseq.log , 47.5
floortile/problems/opt-p03-005.pddl.seq-opt-hpp.log , 
floortile/problems/opt-p03-005.pddl.seq-opt-symba-2.log , 58
floortile/problems/opt-p03-006.pddl.opseq.log , 51.0
floortile/problems/opt-p03-006.pddl.seq-opt-hpp.log , 
floortile/problems/opt-p03-006.pddl.seq-opt-symba-2.log , 60
floortile/problems/opt-p04-007.pddl.opseq.log , 53.0
floortile/problems/opt-p04-007.pddl.seq-opt-hpp.log , 
floortile/problems/opt-p04-007.pddl.seq-opt-symba-2.log , 66
floortile/problems/opt-p04-008.pddl.opseq.log , 56.0
floortile/problems/opt-p04-008.pddl.seq-opt-hpp.log , 
floortile/problems/opt-p04-008.pddl.seq-opt-symba-2.log , 76
floortile/problems/opt-p05-009.pddl.opseq.log , 59.0
floortile/problems/opt-p05-009.pddl.seq-opt-hpp.log , 
floortile/problems/opt-p05-009.pddl.seq-opt-symba-2.log , 76
floortile/problems/opt-p05-010.pddl.opseq.log , 62.0
floortile/problems/opt-p05-010.pddl.seq-opt-hpp.log , 
floortile/problems/opt-p05-010.pddl.seq-opt-symba-2.log , 87
floortile/problems/opt-p06-011.pddl.opseq.log , 72.0942028986
floortile/problems/opt-p06-011.pddl.seq-opt-hpp.log , 
floortile/problems/opt-p06-011.pddl.seq-opt-symba-2.log , 101
floortile/problems/opt-p06-012.pddl.opseq.log , 73.0
floortile/problems/opt-p06-012.pddl.seq-opt-hpp.log , 
floortile/problems/opt-p06-012.pddl.seq-opt-symba-2.log , 106
floortile/problems/opt-p07-013.pddl.opseq.log , 78.0
floortile/problems/opt-p07-013.pddl.seq-opt-hpp.log , 
floortile/problems/opt-p07-013.pddl.seq-opt-symba-2.log , 108
floortile/problems/opt-p07-014.pddl.opseq.log , 77.0
floortile/problems/opt-p07-014.pddl.seq-opt-hpp.log , 
floortile/problems/opt-p07-014.pddl.seq-opt-symba-2.log , 110
floortile/problems/opt-p08-015.pddl.opseq.log , 87.4723741411
floortile/problems/opt-p08-015.pddl.seq-opt-hpp.log , 
floortile/problems/opt-p08-015.pddl.seq-opt-symba-2.log , 105
floortile/problems/opt-p08-016.pddl.opseq.log , 87.8378378378
floortile/problems/opt-p08-016.pddl.seq-opt-hpp.log , 
floortile/problems/opt-p08-016.pddl.seq-opt-symba-2.log , 106
floortile/problems/opt-p09-017.pddl.opseq.log , 97.0931372549
floortile/problems/opt-p09-017.pddl.seq-opt-hpp.log , 
floortile/problems/opt-p09-017.pddl.seq-opt-symba-2.log , 75
floortile/problems/opt-p09-018.pddl.opseq.log , 101.666666667
floortile/problems/opt-p09-018.pddl.seq-opt-hpp.log , 
floortile/problems/opt-p09-018.pddl.seq-opt-symba-2.log , 71
floortile/problems/opt-p10-019.pddl.opseq.log , 103.5
floortile/problems/opt-p10-019.pddl.seq-opt-hpp.log , 
floortile/problems/opt-p10-019.pddl.seq-opt-symba-2.log , 105
floortile/problems/opt-p10-020.pddl.opseq.log , 103.166666667
floortile/problems/opt-p10-020.pddl.seq-opt-hpp.log , 
floortile/problems/opt-p10-020.pddl.seq-opt-symba-2.log , 97
nomystery/problems/p01.pddl.opseq.log , 11.0
nomystery/problems/p01.pddl.seq-opt-hpp.log , 11
nomystery/problems/p01.pddl.seq-opt-symba-2.log , 11
nomystery/problems/p02.pddl.opseq.log , 14.0
nomystery/problems/p02.pddl.seq-opt-hpp.log , 14
nomystery/problems/p02.pddl.seq-opt-symba-2.log , 14
nomystery/problems/p03.pddl.opseq.log , 15.0
nomystery/problems/p03.pddl.seq-opt-hpp.log , 15
nomystery/problems/p03.pddl.seq-opt-symba-2.log , 15
nomystery/problems/p04.pddl.opseq.log , 18.0
nomystery/problems/p04.pddl.seq-opt-hpp.log , 19
nomystery/problems/p04.pddl.seq-opt-symba-2.log , 19
nomystery/problems/p05.pddl.opseq.log , 21.0
nomystery/problems/p05.pddl.seq-opt-hpp.log , 
nomystery/problems/p05.pddl.seq-opt-symba-2.log , 23
nomystery/problems/p06.pddl.opseq.log , 26.0
nomystery/problems/p06.pddl.seq-opt-hpp.log , 
nomystery/problems/p06.pddl.seq-opt-symba-2.log , 26
nomystery/problems/p07.pddl.opseq.log , 28.0
nomystery/problems/p07.pddl.seq-opt-hpp.log , 
nomystery/problems/p07.pddl.seq-opt-symba-2.log , 30
nomystery/problems/p08.pddl.opseq.log , 30.0
nomystery/problems/p08.pddl.seq-opt-hpp.log , 
nomystery/problems/p08.pddl.seq-opt-symba-2.log , 34
nomystery/problems/p09.pddl.opseq.log , 0.0
nomystery/problems/p09.pddl.seq-opt-hpp.log , 
nomystery/problems/p09.pddl.seq-opt-symba-2.log , 37
nomystery/problems/p10.pddl.opseq.log , 34.0
nomystery/problems/p10.pddl.seq-opt-hpp.log , 
nomystery/problems/p10.pddl.seq-opt-symba-2.log , 29
nomystery/problems/p11.pddl.opseq.log , 12.0
nomystery/problems/p11.pddl.seq-opt-hpp.log , 12
nomystery/problems/p11.pddl.seq-opt-symba-2.log , 12
nomystery/problems/p12.pddl.opseq.log , 14.0000000006
nomystery/problems/p12.pddl.seq-opt-hpp.log , 14
nomystery/problems/p12.pddl.seq-opt-symba-2.log , 14
nomystery/problems/p13.pddl.opseq.log , 15.0
nomystery/problems/p13.pddl.seq-opt-hpp.log , 15
nomystery/problems/p13.pddl.seq-opt-symba-2.log , 15
nomystery/problems/p14.pddl.opseq.log , 18.0
nomystery/problems/p14.pddl.seq-opt-hpp.log , 19
nomystery/problems/p14.pddl.seq-opt-symba-2.log , 19
nomystery/problems/p15.pddl.opseq.log , 21.0
nomystery/problems/p15.pddl.seq-opt-hpp.log , 
nomystery/problems/p15.pddl.seq-opt-symba-2.log , 23
nomystery/problems/p16.pddl.opseq.log , 26.0
nomystery/problems/p16.pddl.seq-opt-hpp.log , 
nomystery/problems/p16.pddl.seq-opt-symba-2.log , 26
nomystery/problems/p17.pddl.opseq.log , 28.0
nomystery/problems/p17.pddl.seq-opt-hpp.log , 
nomystery/problems/p17.pddl.seq-opt-symba-2.log , 30
nomystery/problems/p18.pddl.opseq.log , 31.0
nomystery/problems/p18.pddl.seq-opt-hpp.log , 
nomystery/problems/p18.pddl.seq-opt-symba-2.log , 34
nomystery/problems/p19.pddl.opseq.log , 35.0
nomystery/problems/p19.pddl.seq-opt-hpp.log , 
nomystery/problems/p19.pddl.seq-opt-symba-2.log , 34
nomystery/problems/p20.pddl.opseq.log , 34.0
nomystery/problems/p20.pddl.seq-opt-hpp.log , 
nomystery/problems/p20.pddl.seq-opt-symba-2.log , 36
openstacks/problems/p01.pddl.opseq.log , 1.29999999329
openstacks/problems/p01.pddl.seq-opt-hpp.log , 1
openstacks/problems/p01.pddl.seq-opt-symba-2.log , 2
openstacks/problems/p02.pddl.opseq.log , 1.32999999262
openstacks/problems/p02.pddl.seq-opt-hpp.log , 1
openstacks/problems/p02.pddl.seq-opt-symba-2.log , 5
openstacks/problems/p03.pddl.opseq.log , 1.35999999195
openstacks/problems/p03.pddl.seq-opt-hpp.log , 1
openstacks/problems/p03.pddl.seq-opt-symba-2.log , 5
openstacks/problems/p04.pddl.opseq.log , 1.38999999128
openstacks/problems/p04.pddl.seq-opt-hpp.log , 1
openstacks/problems/p04.pddl.seq-opt-symba-2.log , 3
openstacks/problems/p05.pddl.opseq.log , 1.41999999061
openstacks/problems/p05.pddl.seq-opt-hpp.log , 1
openstacks/problems/p05.pddl.seq-opt-symba-2.log , 3
openstacks/problems/p06.pddl.opseq.log , 1.44999998994
openstacks/problems/p06.pddl.seq-opt-hpp.log , 1
openstacks/problems/p06.pddl.seq-opt-symba-2.log , 4
openstacks/problems/p07.pddl.opseq.log , 1.47999998927
openstacks/problems/p07.pddl.seq-opt-hpp.log , 1
openstacks/problems/p07.pddl.seq-opt-symba-2.log , 3
openstacks/problems/p08.pddl.opseq.log , 1.5099999886
openstacks/problems/p08.pddl.seq-opt-hpp.log , 1
openstacks/problems/p08.pddl.seq-opt-symba-2.log , 4
openstacks/problems/p09.pddl.opseq.log , 1.53999998793
openstacks/problems/p09.pddl.seq-opt-hpp.log , 1
openstacks/problems/p09.pddl.seq-opt-symba-2.log , 4
openstacks/problems/p10.pddl.opseq.log , 1.77999998257
openstacks/problems/p10.pddl.seq-opt-hpp.log , 1
openstacks/problems/p10.pddl.seq-opt-symba-2.log , 4
openstacks/problems/p11.pddl.opseq.log , 1.56999998726
openstacks/problems/p11.pddl.seq-opt-hpp.log , 1
openstacks/problems/p11.pddl.seq-opt-symba-2.log , 4
openstacks/problems/p12.pddl.opseq.log , 1.59999998659
openstacks/problems/p12.pddl.seq-opt-hpp.log , 1
openstacks/problems/p12.pddl.seq-opt-symba-2.log , 4
openstacks/problems/p13.pddl.opseq.log , 1.62999998592
openstacks/problems/p13.pddl.seq-opt-hpp.log , 1
openstacks/problems/p13.pddl.seq-opt-symba-2.log , 4
openstacks/problems/p14.pddl.opseq.log , 1.65999998525
openstacks/problems/p14.pddl.seq-opt-hpp.log , 1
openstacks/problems/p14.pddl.seq-opt-symba-2.log , 3
openstacks/problems/p15.pddl.opseq.log , 1.68999998458
openstacks/problems/p15.pddl.seq-opt-hpp.log , 1
openstacks/problems/p15.pddl.seq-opt-symba-2.log , 4
openstacks/problems/p16.pddl.opseq.log , 1.74999998324
openstacks/problems/p16.pddl.seq-opt-hpp.log , 1
openstacks/problems/p16.pddl.seq-opt-symba-2.log , 3
openstacks/problems/p17.pddl.opseq.log , 1.71999998391
openstacks/problems/p17.pddl.seq-opt-hpp.log , 1
openstacks/problems/p17.pddl.seq-opt-symba-2.log , 4
openstacks/problems/p18.pddl.opseq.log , 1.8099999819
openstacks/problems/p18.pddl.seq-opt-hpp.log , 1
openstacks/problems/p18.pddl.seq-opt-symba-2.log , 4
openstacks/problems/p19.pddl.opseq.log , 1.83999998122
openstacks/problems/p19.pddl.seq-opt-hpp.log , 1
openstacks/problems/p19.pddl.seq-opt-symba-2.log , 5
openstacks/problems/p20.pddl.opseq.log , 1.86999998055
openstacks/problems/p20.pddl.seq-opt-hpp.log , 1
openstacks/problems/p20.pddl.seq-opt-symba-2.log , 4
parcprinter/problems/p01.pddl.opseq.log , 375821.01
parcprinter/problems/p01.pddl.seq-opt-hpp.log , 375821
parcprinter/problems/p01.pddl.seq-opt-symba-2.log , 375821
parcprinter/problems/p02.pddl.opseq.log , 438047.01
parcprinter/problems/p02.pddl.seq-opt-hpp.log , 438047
parcprinter/problems/p02.pddl.seq-opt-symba-2.log , 438047
parcprinter/problems/p03.pddl.opseq.log , 510256.01
parcprinter/problems/p03.pddl.seq-opt-hpp.log , 510256
parcprinter/problems/p03.pddl.seq-opt-symba-2.log , 510256
parcprinter/problems/p04.pddl.opseq.log , 876094.01
parcprinter/problems/p04.pddl.seq-opt-hpp.log , 876094
parcprinter/problems/p04.pddl.seq-opt-symba-2.log , 876094
parcprinter/problems/p05.pddl.opseq.log , 519232.01
parcprinter/problems/p05.pddl.seq-opt-hpp.log , 519232
parcprinter/problems/p05.pddl.seq-opt-symba-2.log , 519232
parcprinter/problems/p06.pddl.opseq.log , 1514199.01
parcprinter/problems/p06.pddl.seq-opt-hpp.log , 1514199
parcprinter/problems/p06.pddl.seq-opt-symba-2.log , 1514199
parcprinter/problems/p07.pddl.opseq.log , 1145132.01
parcprinter/problems/p07.pddl.seq-opt-hpp.log , 1145132
parcprinter/problems/p07.pddl.seq-opt-symba-2.log , 1145132
parcprinter/problems/p08.pddl.opseq.log , 751642.01
parcprinter/problems/p08.pddl.seq-opt-hpp.log , 751642
parcprinter/problems/p08.pddl.seq-opt-symba-2.log , 751642
parcprinter/problems/p09.pddl.opseq.log , 693064.01
parcprinter/problems/p09.pddl.seq-opt-hpp.log , 693064
parcprinter/problems/p09.pddl.seq-opt-symba-2.log , 693064
parcprinter/problems/p10.pddl.opseq.log , 1215839.01
parcprinter/problems/p10.pddl.seq-opt-hpp.log , 1215839
parcprinter/problems/p10.pddl.seq-opt-symba-2.log , 1215839
parcprinter/problems/p11.pddl.opseq.log , 1216462.01
parcprinter/problems/p11.pddl.seq-opt-hpp.log , 1216462
parcprinter/problems/p11.pddl.seq-opt-symba-2.log , 1216462
parcprinter/problems/p12.pddl.opseq.log , 1020512.01
parcprinter/problems/p12.pddl.seq-opt-hpp.log , 1020512
parcprinter/problems/p12.pddl.seq-opt-symba-2.log , 1020512
parcprinter/problems/p13.pddl.opseq.log , 1383121.01
parcprinter/problems/p13.pddl.seq-opt-hpp.log , 1383121
parcprinter/problems/p13.pddl.seq-opt-symba-2.log , 1383121
parcprinter/problems/p14.pddl.opseq.log , 1852217.01
parcprinter/problems/p14.pddl.seq-opt-hpp.log , 1852217
parcprinter/problems/p14.pddl.seq-opt-symba-2.log , 1852217
parcprinter/problems/p15.pddl.opseq.log , 2121255.01
parcprinter/problems/p15.pddl.seq-opt-hpp.log , 2121255
parcprinter/problems/p15.pddl.seq-opt-symba-2.log , 2121255
parcprinter/problems/p16.pddl.opseq.log , 2490322.01
parcprinter/problems/p16.pddl.seq-opt-hpp.log , 2490322
parcprinter/problems/p16.pddl.seq-opt-symba-2.log , 2490322
parcprinter/problems/p17.pddl.opseq.log , 1695507.01
parcprinter/problems/p17.pddl.seq-opt-hpp.log , 1695507
parcprinter/problems/p17.pddl.seq-opt-symba-2.log , 1298139
parcprinter/problems/p18.pddl.opseq.log , 1675408.01
parcprinter/problems/p18.pddl.seq-opt-hpp.log , 1675408
parcprinter/problems/p18.pddl.seq-opt-symba-2.log , 890105
parcprinter/problems/p19.pddl.opseq.log , 1713576.01
parcprinter/problems/p19.pddl.seq-opt-hpp.log , 1713576
parcprinter/problems/p19.pddl.seq-opt-symba-2.log , 574570
parcprinter/problems/p20.pddl.opseq.log , 1270874.01
parcprinter/problems/p20.pddl.seq-opt-hpp.log , 1270874
parcprinter/problems/p20.pddl.seq-opt-symba-2.log , 1270874
parking/problems/pfile03-011.pddl.opseq.log , 10.6167539267
parking/problems/pfile03-011.pddl.seq-opt-hpp.log , 11
parking/problems/pfile03-011.pddl.seq-opt-symba-2.log , 14
parking/problems/pfile03-012.pddl.opseq.log , 13.5
parking/problems/pfile03-012.pddl.seq-opt-hpp.log , 15
parking/problems/pfile03-012.pddl.seq-opt-symba-2.log , 19
parking/problems/pfile04-013.pddl.opseq.log , 0.0
parking/problems/pfile04-013.pddl.seq-opt-hpp.log , 17
parking/problems/pfile04-013.pddl.seq-opt-symba-2.log , 14
parking/problems/pfile04-014.pddl.opseq.log , 0.0
parking/problems/pfile04-014.pddl.seq-opt-hpp.log , 17
parking/problems/pfile04-014.pddl.seq-opt-symba-2.log , 15
parking/problems/pfile04-015.pddl.opseq.log , 0.0
parking/problems/pfile04-015.pddl.seq-opt-hpp.log , 15
parking/problems/pfile04-015.pddl.seq-opt-symba-2.log , 15
parking/problems/pfile04-016.pddl.opseq.log , 0.0
parking/problems/pfile04-016.pddl.seq-opt-hpp.log , 16
parking/problems/pfile04-016.pddl.seq-opt-symba-2.log , 16
parking/problems/pfile05-017.pddl.opseq.log , 0.0
parking/problems/pfile05-017.pddl.seq-opt-hpp.log , 19
parking/problems/pfile05-017.pddl.seq-opt-symba-2.log , 14
parking/problems/pfile05-018.pddl.opseq.log , 0.0
parking/problems/pfile05-018.pddl.seq-opt-hpp.log , 17
parking/problems/pfile05-018.pddl.seq-opt-symba-2.log , 13
parking/problems/pfile05-019.pddl.opseq.log , 0.0
parking/problems/pfile05-019.pddl.seq-opt-hpp.log , 20
parking/problems/pfile05-019.pddl.seq-opt-symba-2.log , 16
parking/problems/pfile05-020.pddl.opseq.log , 0.0
parking/problems/pfile05-020.pddl.seq-opt-hpp.log , 19
parking/problems/pfile05-020.pddl.seq-opt-symba-2.log , 14
parking/problems/pfile06-021.pddl.opseq.log , 0.0
parking/problems/pfile06-021.pddl.seq-opt-hpp.log , 21
parking/problems/pfile06-021.pddl.seq-opt-symba-2.log , 11
parking/problems/pfile06-022.pddl.opseq.log , 0.0
parking/problems/pfile06-022.pddl.seq-opt-hpp.log , 23
parking/problems/pfile06-022.pddl.seq-opt-symba-2.log , 11
parking/problems/pfile06-023.pddl.opseq.log , 0.0
parking/problems/pfile06-023.pddl.seq-opt-hpp.log , 21
parking/problems/pfile06-023.pddl.seq-opt-symba-2.log , 11
parking/problems/pfile06-024.pddl.opseq.log , 0.0
parking/problems/pfile06-024.pddl.seq-opt-hpp.log , 21
parking/problems/pfile06-024.pddl.seq-opt-symba-2.log , 11
parking/problems/pfile07-025.pddl.opseq.log , 0.0
parking/problems/pfile07-025.pddl.seq-opt-hpp.log , 23
parking/problems/pfile07-025.pddl.seq-opt-symba-2.log , 10
parking/problems/pfile07-026.pddl.opseq.log , 0.0
parking/problems/pfile07-026.pddl.seq-opt-hpp.log , 22
parking/problems/pfile07-026.pddl.seq-opt-symba-2.log , 11
parking/problems/pfile07-027.pddl.opseq.log , 0.0
parking/problems/pfile07-027.pddl.seq-opt-hpp.log , 23
parking/problems/pfile07-027.pddl.seq-opt-symba-2.log , 12
parking/problems/pfile07-028.pddl.opseq.log , 0.0
parking/problems/pfile07-028.pddl.seq-opt-hpp.log , 24
parking/problems/pfile07-028.pddl.seq-opt-symba-2.log , 11
parking/problems/pfile08-029.pddl.opseq.log , 
parking/problems/pfile08-029.pddl.seq-opt-hpp.log , 25
parking/problems/pfile08-029.pddl.seq-opt-symba-2.log , 7
parking/problems/pfile08-030.pddl.opseq.log , 
parking/problems/pfile08-030.pddl.seq-opt-hpp.log , 25
parking/problems/pfile08-030.pddl.seq-opt-symba-2.log , 7
pegsol/problems/p01.pddl.opseq.log , 3.12999999709
pegsol/problems/p01.pddl.seq-opt-hpp.log , 2
pegsol/problems/p01.pddl.seq-opt-symba-2.log , 3
pegsol/problems/p02.pddl.opseq.log , 7.13999999687
pegsol/problems/p02.pddl.seq-opt-hpp.log , 4
pegsol/problems/p02.pddl.seq-opt-symba-2.log , 10
pegsol/problems/p03.pddl.opseq.log , 7.13999999687
pegsol/problems/p03.pddl.seq-opt-hpp.log , 5
pegsol/problems/p03.pddl.seq-opt-symba-2.log , 7
pegsol/problems/p04.pddl.opseq.log , 8.13999999687
pegsol/problems/p04.pddl.seq-opt-hpp.log , 5
pegsol/problems/p04.pddl.seq-opt-symba-2.log , 8
pegsol/problems/p05.pddl.opseq.log , 10.1399999969
pegsol/problems/p05.pddl.seq-opt-hpp.log , 7
pegsol/problems/p05.pddl.seq-opt-symba-2.log , 12
pegsol/problems/p06.pddl.opseq.log , 7.44032258241
pegsol/problems/p06.pddl.seq-opt-hpp.log , 5
pegsol/problems/p06.pddl.seq-opt-symba-2.log , 9
pegsol/problems/p07.pddl.opseq.log , 6.13999999687
pegsol/problems/p07.pddl.seq-opt-hpp.log , 5
pegsol/problems/p07.pddl.seq-opt-symba-2.log , 7
pegsol/problems/p08.pddl.opseq.log , 5.14999999665
pegsol/problems/p08.pddl.seq-opt-hpp.log , 3
pegsol/problems/p08.pddl.seq-opt-symba-2.log , 7
pegsol/problems/p09.pddl.opseq.log , 6.14999999665
pegsol/problems/p09.pddl.seq-opt-hpp.log , 4
pegsol/problems/p09.pddl.seq-opt-symba-2.log , 8
pegsol/problems/p10.pddl.opseq.log , 7.14999999665
pegsol/problems/p10.pddl.seq-opt-hpp.log , 5
pegsol/problems/p10.pddl.seq-opt-symba-2.log , 8
pegsol/problems/p11.pddl.opseq.log , 5.14999999665
pegsol/problems/p11.pddl.seq-opt-hpp.log , 4
pegsol/problems/p11.pddl.seq-opt-symba-2.log , 6
pegsol/problems/p12.pddl.opseq.log , 9.14999999665
pegsol/problems/p12.pddl.seq-opt-hpp.log , 7
pegsol/problems/p12.pddl.seq-opt-symba-2.log , 11
pegsol/problems/p13.pddl.opseq.log , 8.15999999642
pegsol/problems/p13.pddl.seq-opt-hpp.log , 5
pegsol/problems/p13.pddl.seq-opt-symba-2.log , 8
pegsol/problems/p14.pddl.opseq.log , 7.1699999962
pegsol/problems/p14.pddl.seq-opt-hpp.log , 5
pegsol/problems/p14.pddl.seq-opt-symba-2.log , 8
pegsol/problems/p15.pddl.opseq.log , 8.1699999962
pegsol/problems/p15.pddl.seq-opt-hpp.log , 4
pegsol/problems/p15.pddl.seq-opt-symba-2.log , 8
pegsol/problems/p16.pddl.opseq.log , 5.50603938329
pegsol/problems/p16.pddl.seq-opt-hpp.log , 5
pegsol/problems/p16.pddl.seq-opt-symba-2.log , 9
pegsol/problems/p17.pddl.opseq.log , 
pegsol/problems/p17.pddl.seq-opt-hpp.log , 5
pegsol/problems/p17.pddl.seq-opt-symba-2.log , 7
pegsol/problems/p18.pddl.opseq.log , 9.39666666153
pegsol/problems/p18.pddl.seq-opt-hpp.log , 9
pegsol/problems/p18.pddl.seq-opt-symba-2.log , 12
pegsol/problems/p19.pddl.opseq.log , 9.25999999419
pegsol/problems/p19.pddl.seq-opt-hpp.log , 8
pegsol/problems/p19.pddl.seq-opt-symba-2.log , 11
pegsol/problems/p20.pddl.opseq.log , 13.6629565149
pegsol/problems/p20.pddl.seq-opt-hpp.log , 13
pegsol/problems/p20.pddl.seq-opt-symba-2.log , 16
scanalyzer/problems/p01.pddl.opseq.log , 13.0
scanalyzer/problems/p01.pddl.seq-opt-hpp.log , 13
scanalyzer/problems/p01.pddl.seq-opt-symba-2.log , 13
scanalyzer/problems/p02.pddl.opseq.log , 20.0
scanalyzer/problems/p02.pddl.seq-opt-hpp.log , 22
scanalyzer/problems/p02.pddl.seq-opt-symba-2.log , 22
scanalyzer/problems/p03.pddl.opseq.log , 23.0
scanalyzer/problems/p03.pddl.seq-opt-hpp.log , 23
scanalyzer/problems/p03.pddl.seq-opt-symba-2.log , 26
scanalyzer/problems/p04.pddl.opseq.log , 24.0
scanalyzer/problems/p04.pddl.seq-opt-hpp.log , 24
scanalyzer/problems/p04.pddl.seq-opt-symba-2.log , 24
scanalyzer/problems/p05.pddl.opseq.log , 30.0
scanalyzer/problems/p05.pddl.seq-opt-hpp.log , 
scanalyzer/problems/p05.pddl.seq-opt-symba-2.log , 19
scanalyzer/problems/p06.pddl.opseq.log , 25.0
scanalyzer/problems/p06.pddl.seq-opt-hpp.log , 30
scanalyzer/problems/p06.pddl.seq-opt-symba-2.log , 30
scanalyzer/problems/p07.pddl.opseq.log , 
scanalyzer/problems/p07.pddl.seq-opt-hpp.log , 
scanalyzer/problems/p07.pddl.seq-opt-symba-2.log , 7
scanalyzer/problems/p08.pddl.opseq.log , 0.0
scanalyzer/problems/p08.pddl.seq-opt-hpp.log , 36
scanalyzer/problems/p08.pddl.seq-opt-symba-2.log , 22
scanalyzer/problems/p09.pddl.opseq.log , 0.0
scanalyzer/problems/p09.pddl.seq-opt-hpp.log , 
scanalyzer/problems/p09.pddl.seq-opt-symba-2.log , 23
scanalyzer/problems/p10.pddl.opseq.log , 
scanalyzer/problems/p10.pddl.seq-opt-hpp.log , 
scanalyzer/problems/p10.pddl.seq-opt-symba-2.log , 8
scanalyzer/problems/p11.pddl.opseq.log , 
scanalyzer/problems/p11.pddl.seq-opt-hpp.log , 24
scanalyzer/problems/p11.pddl.seq-opt-symba-2.log , 26
scanalyzer/problems/p12.pddl.opseq.log , 28.3321336082
scanalyzer/problems/p12.pddl.seq-opt-hpp.log , 32
scanalyzer/problems/p12.pddl.seq-opt-symba-2.log , 36
scanalyzer/problems/p13.pddl.opseq.log , 0.0
scanalyzer/problems/p13.pddl.seq-opt-hpp.log , 
scanalyzer/problems/p13.pddl.seq-opt-symba-2.log , 34
scanalyzer/problems/p14.pddl.opseq.log , 
scanalyzer/problems/p14.pddl.seq-opt-hpp.log , 26
scanalyzer/problems/p14.pddl.seq-opt-symba-2.log , 30
scanalyzer/problems/p15.pddl.opseq.log , 30.0
scanalyzer/problems/p15.pddl.seq-opt-hpp.log , 38
scanalyzer/problems/p15.pddl.seq-opt-symba-2.log , 25
scanalyzer/problems/p16.pddl.opseq.log , 36.0
scanalyzer/problems/p16.pddl.seq-opt-hpp.log , 45
scanalyzer/problems/p16.pddl.seq-opt-symba-2.log , 23
scanalyzer/problems/p17.pddl.opseq.log , 0.0
scanalyzer/problems/p17.pddl.seq-opt-hpp.log , 50
scanalyzer/problems/p17.pddl.seq-opt-symba-2.log , 26
scanalyzer/problems/p18.pddl.opseq.log , 0.0
scanalyzer/problems/p18.pddl.seq-opt-hpp.log , 55
scanalyzer/problems/p18.pddl.seq-opt-symba-2.log , 19
scanalyzer/problems/p19.pddl.opseq.log , 
scanalyzer/problems/p19.pddl.seq-opt-hpp.log , 
scanalyzer/problems/p19.pddl.seq-opt-symba-2.log , 12
scanalyzer/problems/p20.pddl.opseq.log , 
scanalyzer/problems/p20.pddl.seq-opt-hpp.log , 
scanalyzer/problems/p20.pddl.seq-opt-symba-2.log , 11
sokoban/problems/p01.pddl.opseq.log , 3.04915638057
sokoban/problems/p01.pddl.seq-opt-hpp.log , 5
sokoban/problems/p01.pddl.seq-opt-symba-2.log , 9
sokoban/problems/p02.pddl.opseq.log , 7.17628403689
sokoban/problems/p02.pddl.seq-opt-hpp.log , 15
sokoban/problems/p02.pddl.seq-opt-symba-2.log , 37
sokoban/problems/p03.pddl.opseq.log , 13.1629598894
sokoban/problems/p03.pddl.seq-opt-hpp.log , 13
sokoban/problems/p03.pddl.seq-opt-symba-2.log , 29
sokoban/problems/p04.pddl.opseq.log , 28.359999992
sokoban/problems/p04.pddl.seq-opt-hpp.log , 27
sokoban/problems/p04.pddl.seq-opt-symba-2.log , 29
sokoban/problems/p05.pddl.opseq.log , 22.3248387024
sokoban/problems/p05.pddl.seq-opt-hpp.log , 19
sokoban/problems/p05.pddl.seq-opt-symba-2.log , 50
sokoban/problems/p06.pddl.opseq.log , 16.4046575252
sokoban/problems/p06.pddl.seq-opt-hpp.log , 17
sokoban/problems/p06.pddl.seq-opt-symba-2.log , 35
sokoban/problems/p07.pddl.opseq.log , 13.1677575155
sokoban/problems/p07.pddl.seq-opt-hpp.log , 10
sokoban/problems/p07.pddl.seq-opt-symba-2.log , 30
sokoban/problems/p08.pddl.opseq.log , 6.49196919723
sokoban/problems/p08.pddl.seq-opt-hpp.log , 5
sokoban/problems/p08.pddl.seq-opt-symba-2.log , 19
sokoban/problems/p09.pddl.opseq.log , 7.32999999262
sokoban/problems/p09.pddl.seq-opt-hpp.log , 10
sokoban/problems/p09.pddl.seq-opt-symba-2.log , 15
sokoban/problems/p10.pddl.opseq.log , 8.11999999732
sokoban/problems/p10.pddl.seq-opt-hpp.log , 8
sokoban/problems/p10.pddl.seq-opt-symba-2.log , 8
sokoban/problems/p11.pddl.opseq.log , 4.13864273845
sokoban/problems/p11.pddl.seq-opt-hpp.log , 5
sokoban/problems/p11.pddl.seq-opt-symba-2.log , 20
sokoban/problems/p12.pddl.opseq.log , 4.10999999754
sokoban/problems/p12.pddl.seq-opt-hpp.log , 2
sokoban/problems/p12.pddl.seq-opt-symba-2.log , 2
sokoban/problems/p13.pddl.opseq.log , 18.1918172648
sokoban/problems/p13.pddl.seq-opt-hpp.log , 14
sokoban/problems/p13.pddl.seq-opt-symba-2.log , 31
sokoban/problems/p14.pddl.opseq.log , 9.14185964595
sokoban/problems/p14.pddl.seq-opt-hpp.log , 9
sokoban/problems/p14.pddl.seq-opt-symba-2.log , 32
sokoban/problems/p15.pddl.opseq.log , 33.5299999882
sokoban/problems/p15.pddl.seq-opt-hpp.log , 32
sokoban/problems/p15.pddl.seq-opt-symba-2.log , 49
sokoban/problems/p16.pddl.opseq.log , 60.4699999895
sokoban/problems/p16.pddl.seq-opt-hpp.log , 62
sokoban/problems/p16.pddl.seq-opt-symba-2.log , 76
sokoban/problems/p17.pddl.opseq.log , 31.359999992
sokoban/problems/p17.pddl.seq-opt-hpp.log , 29
sokoban/problems/p17.pddl.seq-opt-symba-2.log , 47
sokoban/problems/p18.pddl.opseq.log , 2.12200190515
sokoban/problems/p18.pddl.seq-opt-hpp.log , 5
sokoban/problems/p18.pddl.seq-opt-symba-2.log , 10
sokoban/problems/p19.pddl.opseq.log , 33.4106383448
sokoban/problems/p19.pddl.seq-opt-hpp.log , 33
sokoban/problems/p19.pddl.seq-opt-symba-2.log , 44
sokoban/problems/p20.pddl.opseq.log , 16.2332550976
sokoban/problems/p20.pddl.seq-opt-hpp.log , 15
sokoban/problems/p20.pddl.seq-opt-symba-2.log , 31
tidybot/problems/p01.pddl.opseq.log , 4.0
tidybot/problems/p01.pddl.seq-opt-hpp.log , 
tidybot/problems/p01.pddl.seq-opt-symba-2.log , 4
tidybot/problems/p02.pddl.opseq.log , 20.0
tidybot/problems/p02.pddl.seq-opt-hpp.log , 
tidybot/problems/p02.pddl.seq-opt-symba-2.log , 33
tidybot/problems/p03.pddl.opseq.log , 12.8504138727
tidybot/problems/p03.pddl.seq-opt-hpp.log , 
tidybot/problems/p03.pddl.seq-opt-symba-2.log , 16
tidybot/problems/p04.pddl.opseq.log , 25.1144721506
tidybot/problems/p04.pddl.seq-opt-hpp.log , 
tidybot/problems/p04.pddl.seq-opt-symba-2.log , 32
tidybot/problems/p05.pddl.opseq.log , 18.0
tidybot/problems/p05.pddl.seq-opt-hpp.log , 
tidybot/problems/p05.pddl.seq-opt-symba-2.log , 38
tidybot/problems/p06.pddl.opseq.log , 21.7
tidybot/problems/p06.pddl.seq-opt-hpp.log , 
tidybot/problems/p06.pddl.seq-opt-symba-2.log , 32
tidybot/problems/p07.pddl.opseq.log , 12.0
tidybot/problems/p07.pddl.seq-opt-hpp.log , 
tidybot/problems/p07.pddl.seq-opt-symba-2.log , 17
tidybot/problems/p08.pddl.opseq.log , 17.0
tidybot/problems/p08.pddl.seq-opt-hpp.log , 
tidybot/problems/p08.pddl.seq-opt-symba-2.log , 37
tidybot/problems/p09.pddl.opseq.log , 0.0
tidybot/problems/p09.pddl.seq-opt-hpp.log , 
tidybot/problems/p09.pddl.seq-opt-symba-2.log , 27
tidybot/problems/p10.pddl.opseq.log , 
tidybot/problems/p10.pddl.seq-opt-hpp.log , 
tidybot/problems/p10.pddl.seq-opt-symba-2.log , 29
tidybot/problems/p11.pddl.opseq.log , 
tidybot/problems/p11.pddl.seq-opt-hpp.log , 
tidybot/problems/p11.pddl.seq-opt-symba-2.log , 29
tidybot/problems/p12.pddl.opseq.log , 
tidybot/problems/p12.pddl.seq-opt-hpp.log , 
tidybot/problems/p12.pddl.seq-opt-symba-2.log , 35
tidybot/problems/p13.pddl.opseq.log , 0.0
tidybot/problems/p13.pddl.seq-opt-hpp.log , 
tidybot/problems/p13.pddl.seq-opt-symba-2.log , 30
tidybot/problems/p14.pddl.opseq.log , 
tidybot/problems/p14.pddl.seq-opt-hpp.log , 
tidybot/problems/p14.pddl.seq-opt-symba-2.log , 25
tidybot/problems/p15.pddl.opseq.log , 
tidybot/problems/p15.pddl.seq-opt-hpp.log , 
tidybot/problems/p15.pddl.seq-opt-symba-2.log , 26
tidybot/problems/p16.pddl.opseq.log , 
tidybot/problems/p16.pddl.seq-opt-hpp.log , 
tidybot/problems/p16.pddl.seq-opt-symba-2.log , 31
tidybot/problems/p17.pddl.opseq.log , 
tidybot/problems/p17.pddl.seq-opt-hpp.log , 
tidybot/problems/p17.pddl.seq-opt-symba-2.log , 40
tidybot/problems/p18.pddl.opseq.log , 
tidybot/problems/p18.pddl.seq-opt-hpp.log , 
tidybot/problems/p18.pddl.seq-opt-symba-2.log , 44
tidybot/problems/p19.pddl.opseq.log , 
tidybot/problems/p19.pddl.seq-opt-hpp.log , 
tidybot/problems/p19.pddl.seq-opt-symba-2.log , 28
tidybot/problems/p20.pddl.opseq.log , 
tidybot/problems/p20.pddl.seq-opt-hpp.log , 
tidybot/problems/p20.pddl.seq-opt-symba-2.log , 46
transport/problems/p01.pddl.opseq.log , 630.0
transport/problems/p01.pddl.seq-opt-hpp.log , 527
transport/problems/p01.pddl.seq-opt-symba-2.log , 630
transport/problems/p02.pddl.opseq.log , 250.0
transport/problems/p02.pddl.seq-opt-hpp.log , 193
transport/problems/p02.pddl.seq-opt-symba-2.log , 250
transport/problems/p03.pddl.opseq.log , 594.0
transport/problems/p03.pddl.seq-opt-hpp.log , 347
transport/problems/p03.pddl.seq-opt-symba-2.log , 594
transport/problems/p04.pddl.opseq.log , 550.0
transport/problems/p04.pddl.seq-opt-hpp.log , 318
transport/problems/p04.pddl.seq-opt-symba-2.log , 550
transport/problems/p05.pddl.opseq.log , 614.0
transport/problems/p05.pddl.seq-opt-hpp.log , 428
transport/problems/p05.pddl.seq-opt-symba-2.log , 614
transport/problems/p06.pddl.opseq.log , 309.0
transport/problems/p06.pddl.seq-opt-hpp.log , 205
transport/problems/p06.pddl.seq-opt-symba-2.log , 318
transport/problems/p07.pddl.opseq.log , 282.0
transport/problems/p07.pddl.seq-opt-hpp.log , 178
transport/problems/p07.pddl.seq-opt-symba-2.log , 282
transport/problems/p08.pddl.opseq.log , 320.0
transport/problems/p08.pddl.seq-opt-hpp.log , 214
transport/problems/p08.pddl.seq-opt-symba-2.log , 322
transport/problems/p09.pddl.opseq.log , 247.0
transport/problems/p09.pddl.seq-opt-hpp.log , 151
transport/problems/p09.pddl.seq-opt-symba-2.log , 302
transport/problems/p10.pddl.opseq.log , 413.0
transport/problems/p10.pddl.seq-opt-hpp.log , 243
transport/problems/p10.pddl.seq-opt-symba-2.log , 349
transport/problems/p11.pddl.opseq.log , 864.611111111
transport/problems/p11.pddl.seq-opt-hpp.log , 426
transport/problems/p11.pddl.seq-opt-symba-2.log , 573
transport/problems/p12.pddl.opseq.log , 910.0
transport/problems/p12.pddl.seq-opt-hpp.log , 438
transport/problems/p12.pddl.seq-opt-symba-2.log , 493
transport/problems/p13.pddl.opseq.log , 384.0
transport/problems/p13.pddl.seq-opt-hpp.log , 236
transport/problems/p13.pddl.seq-opt-symba-2.log , 394
transport/problems/p14.pddl.opseq.log , 376.0
transport/problems/p14.pddl.seq-opt-hpp.log , 243
transport/problems/p14.pddl.seq-opt-symba-2.log , 203
transport/problems/p15.pddl.opseq.log , 854.0
transport/problems/p15.pddl.seq-opt-hpp.log , 593
transport/problems/p15.pddl.seq-opt-symba-2.log , 854
transport/problems/p16.pddl.opseq.log , 874.0
transport/problems/p16.pddl.seq-opt-hpp.log , 561
transport/problems/p16.pddl.seq-opt-symba-2.log , 459
transport/problems/p17.pddl.opseq.log , 274.0
transport/problems/p17.pddl.seq-opt-hpp.log , 227
transport/problems/p17.pddl.seq-opt-symba-2.log , 332
transport/problems/p18.pddl.opseq.log , 863.0
transport/problems/p18.pddl.seq-opt-hpp.log , 382
transport/problems/p18.pddl.seq-opt-symba-2.log , 941
transport/problems/p19.pddl.opseq.log , 944.012966057
transport/problems/p19.pddl.seq-opt-hpp.log , 549
transport/problems/p19.pddl.seq-opt-symba-2.log , 970
transport/problems/p20.pddl.opseq.log , 381.0
transport/problems/p20.pddl.seq-opt-hpp.log , 268
transport/problems/p20.pddl.seq-opt-symba-2.log , 265
visitall/problems/problem02-full.pddl.opseq.log , 3.0
visitall/problems/problem02-full.pddl.seq-opt-hpp.log , 3
visitall/problems/problem02-full.pddl.seq-opt-symba-2.log , 3
visitall/problems/problem02-half.pddl.opseq.log , 1.0
visitall/problems/problem02-half.pddl.seq-opt-hpp.log , 1
visitall/problems/problem02-half.pddl.seq-opt-symba-2.log , 1
visitall/problems/problem03-full.pddl.opseq.log , 8.0
visitall/problems/problem03-full.pddl.seq-opt-hpp.log , 8
visitall/problems/problem03-full.pddl.seq-opt-symba-2.log , 8
visitall/problems/problem03-half.pddl.opseq.log , 6.0
visitall/problems/problem03-half.pddl.seq-opt-hpp.log , 6
visitall/problems/problem03-half.pddl.seq-opt-symba-2.log , 6
visitall/problems/problem04-full.pddl.opseq.log , 15.0
visitall/problems/problem04-full.pddl.seq-opt-hpp.log , 15
visitall/problems/problem04-full.pddl.seq-opt-symba-2.log , 15
visitall/problems/problem04-half.pddl.opseq.log , 11.0
visitall/problems/problem04-half.pddl.seq-opt-hpp.log , 11
visitall/problems/problem04-half.pddl.seq-opt-symba-2.log , 11
visitall/problems/problem05-full.pddl.opseq.log , 24.0
visitall/problems/problem05-full.pddl.seq-opt-hpp.log , 24
visitall/problems/problem05-full.pddl.seq-opt-symba-2.log , 24
visitall/problems/problem05-half.pddl.opseq.log , 18.0
visitall/problems/problem05-half.pddl.seq-opt-hpp.log , 16
visitall/problems/problem05-half.pddl.seq-opt-symba-2.log , 05
visitall/problems/problem06-full.pddl.opseq.log , 35.0
visitall/problems/problem06-full.pddl.seq-opt-hpp.log , 35
visitall/problems/problem06-full.pddl.seq-opt-symba-2.log , 35
visitall/problems/problem06-half.pddl.opseq.log , 23.0
visitall/problems/problem06-half.pddl.seq-opt-hpp.log , 20
visitall/problems/problem06-half.pddl.seq-opt-symba-2.log , 23
visitall/problems/problem07-full.pddl.opseq.log , 48.0
visitall/problems/problem07-full.pddl.seq-opt-hpp.log , 48
visitall/problems/problem07-full.pddl.seq-opt-symba-2.log , 42
visitall/problems/problem07-half.pddl.opseq.log , 36.0
visitall/problems/problem07-half.pddl.seq-opt-hpp.log , 33
visitall/problems/problem07-half.pddl.seq-opt-symba-2.log , 36
visitall/problems/problem08-full.pddl.opseq.log , 
visitall/problems/problem08-full.pddl.seq-opt-hpp.log , 63
visitall/problems/problem08-full.pddl.seq-opt-symba-2.log , 39
visitall/problems/problem08-half.pddl.opseq.log , 43.0
visitall/problems/problem08-half.pddl.seq-opt-hpp.log , 38
visitall/problems/problem08-half.pddl.seq-opt-symba-2.log , 43
visitall/problems/problem09-full.pddl.opseq.log , 80.0
visitall/problems/problem09-full.pddl.seq-opt-hpp.log , 80
visitall/problems/problem09-full.pddl.seq-opt-symba-2.log , 34
visitall/problems/problem09-half.pddl.opseq.log , 63.0
visitall/problems/problem09-half.pddl.seq-opt-hpp.log , 54
visitall/problems/problem09-half.pddl.seq-opt-symba-2.log , 42
visitall/problems/problem10-full.pddl.opseq.log , 99.0
visitall/problems/problem10-full.pddl.seq-opt-hpp.log , 99
visitall/problems/problem10-full.pddl.seq-opt-symba-2.log , 31
visitall/problems/problem10-half.pddl.opseq.log , 64.0
visitall/problems/problem10-half.pddl.seq-opt-hpp.log , 57
visitall/problems/problem10-half.pddl.seq-opt-symba-2.log , 48
visitall/problems/problem11-full.pddl.opseq.log , 120.0
visitall/problems/problem11-full.pddl.seq-opt-hpp.log , 120
visitall/problems/problem11-full.pddl.seq-opt-symba-2.log , 34
visitall/problems/problem11-half.pddl.opseq.log , 74.75
visitall/problems/problem11-half.pddl.seq-opt-hpp.log , 67
visitall/problems/problem11-half.pddl.seq-opt-symba-2.log , 36
woodworking/problems/p01.pddl.opseq.log , 195.0
woodworking/problems/p01.pddl.seq-opt-hpp.log , 195
woodworking/problems/p01.pddl.seq-opt-symba-2.log , 195
woodworking/problems/p02.pddl.opseq.log , 225.0
woodworking/problems/p02.pddl.seq-opt-hpp.log , 225
woodworking/problems/p02.pddl.seq-opt-symba-2.log , 225
woodworking/problems/p03.pddl.opseq.log , 215.0
woodworking/problems/p03.pddl.seq-opt-hpp.log , 215
woodworking/problems/p03.pddl.seq-opt-symba-2.log , 215
woodworking/problems/p04.pddl.opseq.log , 275.0
woodworking/problems/p04.pddl.seq-opt-hpp.log , 275
woodworking/problems/p04.pddl.seq-opt-symba-2.log , 275
woodworking/problems/p05.pddl.opseq.log , 245.0
woodworking/problems/p05.pddl.seq-opt-hpp.log , 245
woodworking/problems/p05.pddl.seq-opt-symba-2.log , 245
woodworking/problems/p06.pddl.opseq.log , 280.0
woodworking/problems/p06.pddl.seq-opt-hpp.log , 280
woodworking/problems/p06.pddl.seq-opt-symba-2.log , 280
woodworking/problems/p07.pddl.opseq.log , 225.0
woodworking/problems/p07.pddl.seq-opt-hpp.log , 225
woodworking/problems/p07.pddl.seq-opt-symba-2.log , 225
woodworking/problems/p08.pddl.opseq.log , 380.0
woodworking/problems/p08.pddl.seq-opt-hpp.log , 380
woodworking/problems/p08.pddl.seq-opt-symba-2.log , 380
woodworking/problems/p09.pddl.opseq.log , 270.0
woodworking/problems/p09.pddl.seq-opt-hpp.log , 270
woodworking/problems/p09.pddl.seq-opt-symba-2.log , 270
woodworking/problems/p10.pddl.opseq.log , 270.0
woodworking/problems/p10.pddl.seq-opt-hpp.log , 270
woodworking/problems/p10.pddl.seq-opt-symba-2.log , 270
woodworking/problems/p11.pddl.opseq.log , 240.0
woodworking/problems/p11.pddl.seq-opt-hpp.log , 240
woodworking/problems/p11.pddl.seq-opt-symba-2.log , 240
woodworking/problems/p12.pddl.opseq.log , 315.0
woodworking/problems/p12.pddl.seq-opt-hpp.log , 315
woodworking/problems/p12.pddl.seq-opt-symba-2.log , 315
woodworking/problems/p13.pddl.opseq.log , 430.0
woodworking/problems/p13.pddl.seq-opt-hpp.log , 430
woodworking/problems/p13.pddl.seq-opt-symba-2.log , 430
woodworking/problems/p14.pddl.opseq.log , 350.0
woodworking/problems/p14.pddl.seq-opt-hpp.log , 350
woodworking/problems/p14.pddl.seq-opt-symba-2.log , 350
woodworking/problems/p15.pddl.opseq.log , 290.0
woodworking/problems/p15.pddl.seq-opt-hpp.log , 290
woodworking/problems/p15.pddl.seq-opt-symba-2.log , 290
woodworking/problems/p16.pddl.opseq.log , 400.0
woodworking/problems/p16.pddl.seq-opt-hpp.log , 400
woodworking/problems/p16.pddl.seq-opt-symba-2.log , 400
woodworking/problems/p17.pddl.opseq.log , 555.0
woodworking/problems/p17.pddl.seq-opt-hpp.log , 535
woodworking/problems/p17.pddl.seq-opt-symba-2.log , 555
woodworking/problems/p18.pddl.opseq.log , 455.0
woodworking/problems/p18.pddl.seq-opt-hpp.log , 455
woodworking/problems/p18.pddl.seq-opt-symba-2.log , 455
woodworking/problems/p19.pddl.opseq.log , 430.0
woodworking/problems/p19.pddl.seq-opt-hpp.log , 430
woodworking/problems/p19.pddl.seq-opt-symba-2.log , 430
woodworking/problems/p20.pddl.opseq.log , 545.0
woodworking/problems/p20.pddl.seq-opt-hpp.log , 535
woodworking/problems/p20.pddl.seq-opt-symba-2.log , 405
