/import/atp-linhome/home/1/tdavies/seq-opt-hpp,sokoban/domain/*.pddl,1
/import/atp-linhome/home/1/tdavies/seq-opt-hpp,tidybot/domain/*.pddl,0
/import/atp-linhome/home/1/tdavies/seq-opt-hpp,visitall/domain/*.pddl,5
/import/atp-linhome/home/1/tdavies/seq-opt-hpp,woodworking/domain/*.pddl,18
/import/atp-linhome/home/1/tdavies/seq-opt-hpp,floortile/domain/*.pddl,0
/import/atp-linhome/home/1/tdavies/seq-opt-hpp,nomystery/domain/*.pddl,5
/import/atp-linhome/home/1/tdavies/seq-opt-hpp,parcprinter/domain/*.pddl,20
/import/atp-linhome/home/1/tdavies/seq-opt-hpp,scanalyzer/domain/*.pddl,3
/import/atp-linhome/home/1/tdavies/opseq,tidybot/domain/*.pddl,1
/import/atp-linhome/home/1/tdavies/opseq,transport/domain/*.pddl,5
/import/atp-linhome/home/1/tdavies/opseq,visitall/domain/*.pddl,14
/import/atp-linhome/home/1/tdavies/opseq,woodworking/domain/*.pddl,20
/import/atp-linhome/home/1/tdavies/opseq,elevators/domain/*.pddl,12
/import/atp-linhome/home/1/tdavies/opseq,nomystery/domain/*.pddl,5
/import/atp-linhome/home/1/tdavies/opseq,parcprinter/domain/*.pddl,20
/import/atp-linhome/home/1/tdavies/opseq,pegsol/domain/*.pddl,2
/import/atp-linhome/home/1/tdavies/opseq,scanalyzer/domain/*.pddl,1
/import/atp-linhome/home/1/tdavies/seq-opt-symba-2,barman/domain/*.pddl,11
/import/atp-linhome/home/1/tdavies/seq-opt-symba-2,sokoban/domain/*.pddl,20
/import/atp-linhome/home/1/tdavies/seq-opt-symba-2,tidybot/domain/*.pddl,17
/import/atp-linhome/home/1/tdavies/seq-opt-symba-2,transport/domain/*.pddl,11
/import/atp-linhome/home/1/tdavies/seq-opt-symba-2,visitall/domain/*.pddl,12
/import/atp-linhome/home/1/tdavies/seq-opt-symba-2,woodworking/domain/*.pddl,19
/import/atp-linhome/home/1/tdavies/seq-opt-symba-2,elevators/domain/*.pddl,19
/import/atp-linhome/home/1/tdavies/seq-opt-symba-2,floortile/domain/*.pddl,14
/import/atp-linhome/home/1/tdavies/seq-opt-symba-2,nomystery/domain/*.pddl,15
/import/atp-linhome/home/1/tdavies/seq-opt-symba-2,openstacks/domain/*.pddl,20
/import/atp-linhome/home/1/tdavies/seq-opt-symba-2,parcprinter/domain/*.pddl,17
/import/atp-linhome/home/1/tdavies/seq-opt-symba-2,parking/domain/*.pddl,1
/import/atp-linhome/home/1/tdavies/seq-opt-symba-2,pegsol/domain/*.pddl,19
/import/atp-linhome/home/1/tdavies/seq-opt-symba-2,scanalyzer/domain/*.pddl,9
