elevators, 13
elevators, 7
elevators, 6
elevators, 8
elevators, 457
elevators, 6
elevators, 47
elevators, 270
elevators, 17
elevators, 640
elevators, 662
elevators, 10
nomystery, 268
nomystery, 878
nomystery, 4127
nomystery, 1464
nomystery, 525
parcprinter, 3
parcprinter, 3
parcprinter, 3
parcprinter, 3
parcprinter, 3
parcprinter, 3
parcprinter, 3
parcprinter, 3
parcprinter, 3
parcprinter, 4
parcprinter, 3
parcprinter, 3
parcprinter, 3
parcprinter, 3
parcprinter, 3
parcprinter, 3
parcprinter, 40
parcprinter, 7
parcprinter, 3
parcprinter, 3
pegsol, 5
pegsol, 304
scanalyzer, 3
tidybot, 3
transport, 7
transport, 30
transport, 12
transport, 3
transport, 651
visitall, 3
visitall, 3
visitall, 3
visitall, 3
visitall, 3
visitall, 3
visitall, 3
visitall, 3
visitall, 3
visitall, 3
visitall, 3
visitall, 3
visitall, 5
visitall, 5
woodworking, 3
woodworking, 4
woodworking, 3
woodworking, 3
woodworking, 4
woodworking, 15
woodworking, 4
woodworking, 3
woodworking, 14
woodworking, 18
woodworking, 3
woodworking, 6
woodworking, 6
woodworking, 12
woodworking, 6
woodworking, 5
woodworking, 22
woodworking, 13
woodworking, 6
woodworking, 10
